text-embedding • rollama
…
reviews_embeddings <- reviews |>
  mutate(embeddings = embed_text(text = full_text, model = "nomic-embed-text")) |>
  select(id, rating, embeddings) |>
  unnest_wider(embeddings)
#> ✔ embedded 500 texts [25s]           

The resulting data.frame contains the ID and rating along the 768
embedding dimensions:

reviews_embeddings
#> # A tibble: 500 × 770
#>       id rating   dim_1 dim_2 dim_3   dim_4  dim_5   dim_6   dim_7  dim_8   dim_9  dim_10 dim_11
#>    <dbl> <fct>    <dbl> <dbl> <dbl>   <dbl>  <dbl>   <dbl>   <dbl>  <dbl>   <dbl>   <dbl>  <dbl>
#>  1     0 <5      1.12   1.56  -4.48 -0.129  -0.373  0.390  -1.24    0.821 -0.0431 -0.261  -0.431
#>  2     1 5       0.792  0.721 -3.14 -0.808  -1.81   1.35    0.403  -0.377  0.358  -0.173  -0.643
#>  3     2 <5      0.539  1.12  -2.58 -0.417  -0.992  1.77    0.895   0.174  0.199  -0.359  -0.637
#>  4     3 5      -0.150  1.25  -4.12 -0.0750 -0.835  1.06   -0.0965 -0.292  0.636  -1.20   -0.188
#>  5     4 5       0.352  0.972 -3.40 -1.18   -0.686  0.489   0.127   0.473  0.259  -0.953  -0.757
#>  6     5 <5      0.907  0.975 -2.78 -0.638  -1.48   2.21    0.373  -0.448  0.395  -0.371  -0.442
#>  7     6 5       0.523  0.321 -2.46 -0.678  -0.640  0.501   0.703   0.320  0.442   0.500  -0.814
#>  8     7 <5      0.224  0.694 -3.12 -0.562  -1.50  -0.0708  0.178   0.144  0.367   0.0269 -0.755
#>  9     8 5      -0.0477 1.21  -3.70 -0.300  -0.936  0.583   0.135  -0.234  0.220  -0.384   0.512
#> 10     9 5      -0.105  1.13  -3.22 -0.310  -1.69   0.857  -0.157  -0.122  0.227  -0.513  -0.333
#> # ℹ 490 more rows
#> # ℹ 757 more variables: dim_12 <dbl>, dim_13 <dbl>, dim_14 <dbl>, dim_15 <dbl>, dim_16 <dbl>,
#> #   dim_17 <dbl>, dim_18 <dbl>, dim_19 <dbl>, dim_20 <dbl>, dim_21 <dbl>, dim_22 <dbl>,
#> #   dim_23 <dbl>, dim_24 <dbl>, dim_25 <dbl>, dim_26 <dbl>, dim_27 <dbl>, dim_28 <dbl>,
#> #   dim_29 <dbl>, dim_30 <dbl>, dim_31 <dbl>, dim_32 <dbl>, dim_33 <dbl>, dim_34 <dbl>,
#> #   dim_35 <dbl>, dim_36 <dbl>, dim_37 <dbl>, dim_38 <dbl>, dim_39 <dbl>, dim_40 <dbl>,
#> #   dim_41 <dbl>, dim_42 <dbl>, dim_43 <dbl>, dim_44 <dbl>, dim_45 <dbl>, dim_46 <dbl>, …
…
